{
  "shortcuts": [
  ],
  "client": {
    "config": {
      "userCfg": {
        "ComponentsCfg": {
	      "ErrorInspectorCfg": {
	        "condensed": false,
			"hideResolvedErrors": true
		  }
		}
	  },
      "nonPersistedCfg": {
        "ComponentsCfg": {
          "AppLogoC0102": {
            "visible": false,
            "enabled": false
          },
          "PrintToggleC0124": {
            "visible": false,
            "enabled": false
          },
          "AttachFileToggleC0205": {
            "visible": false,
            "enabled": false
          },
          "ResetToDefaultButtonC0437": {
            "visible": false,
            "enabled": false
          }
        },
        "MapSupportedCoordinatesCfg": {
          "supported": [
            {
              "id": "EPSG:5514",
              "wkt": "PROJCS[\"S-JTSK / Krovak East North\",GEOGCS[\"S-JTSK\",DATUM[\"System of the Unified Trigonometrical Cadastral Network\",SPHEROID[\"Bessel 1841\",6377397.155,299.1528128],TOWGS84[542.5,89.2,456.9,5.517,2.275,5.516,6.96]],PRIMEM[\"Greenwich\",0.0],UNIT[\"degree\",0.017453292519943295],AXIS[\"Geodetic latitude\",NORTH],AXIS[\"Geodetic longitude\",EAST],AUTHORITY[\"EPSG\",4156]],PROJECTION[\"Krovak (North Orientated)\"],PARAMETER[\"Latitude of projection centre\",49.5],PARAMETER[\"Longitude of origin\",24.833333333333332],PARAMETER[\"Co-latitude of cone axis\",30.288139752777777],PARAMETER[\"Latitude of pseudo standard parallel\",78.5],PARAMETER[\"Scale factor on pseudo standard parallel\",0.9999],PARAMETER[\"False easting\",0.0],PARAMETER[\"False northing\",0.0],UNIT[\"Meter\",1.0],AXIS[\"Easting\",EAST],AXIS[\"Northing\",NORTH],AUTHORITY[\"EPSG\",5514]]",
              "display": {
                "flipAxes": true,
                "invert": true,
                "xLabel": "X",
                "yLabel": "Y",
                "zLabel": "Z",
                "decimalsXY": 2,
                "decimalsZ": 2
              },
              "edit": {
                "decimalsXY": 2,
                "decimalsZ": 2
              }
            },
            {
              "id": "EPSG:4326",
              "display": {
                "flipAxes": true,
                "xLabel": "L",
                "yLabel": "B",
                "zLabel": "h",
                "decimalsXY": 5,
                "decimalsZ": 0
              }
            }
          ]
        }
      }
    }
  },
  "data": {
    "userMaps": [
    ],
    "baseMaps": {
      "sources": []
    }
  }
}